Awesome R Tips!
…
(#fig:case_when)Selective labelling

Credit: @rensa_co

1.2 mutate_at()

mutate_at() takes a range of consecutive columns, with var(col1:coln) if you want to batch convert a bunch of columns:

iris %>% 
  mutate_at(vars(Sepal.Length:Petal.Width), as.character) %>% 
  as_tibble()

## # A tibble: 150 x 5
##    Sepal.Length Sepal.Width Petal.Length Petal.Width Species
##    <chr>        <chr>       <chr>        <chr>       <fct>  
##  1 5.1          3.5         1.4          0.2         setosa 
##  2 4.9          3           1.4          0.2         setosa 
##  3 4.7          3.2         1.3          0.2         setosa 
##  4 4.6          3.1         1.5          0.2         setosa 
##  5 5            3.6         1.4          0.2         setosa 
##  6 5.4          3.9         1.7          0.4         setosa 
##  7 4.6          3.4         1.4          0.3         setosa 
##  8 5            3.4         1.5          0.2         setosa 
##  9 4.4          2.9         1.4          0.2         setosa 
## 10 4.9          3.1         1.5          0.1         setosa 
## # ... with 140 more rows

Credit: @vsbuffalo

1.3 mutate_if()

Convert all factor columns to characters.

iris %>% 
  mutate_if(is.factor, as.character) %>% 
  as_tibble()

## # A tibble: 150 x 5
##    Sepal.Length Sepal.Width Petal.Length Petal.Width Species
##           <dbl>       <dbl>        <dbl>       <dbl> <chr>  
##  1          5.1         3.5          1.4         0.2 setosa 
##  2          4.9         3            1.4         0.2 setosa 
##  3          4.7         3.2          1.3         0.2 setosa 
##  4          4.6         3.1          1.5         0.2 setosa 
##  5          5           3.6          1.4         0.2 setosa 
##  6          5.4         3.9          1.7         0.4 setosa 
##  7          4.6         3.4          1.4         0.3 setosa 
##  8          5           3.4          1.5         0.2 setosa 
##  9          4.4         2.9          1.4         0.2 setosa 
## 10          4.9         3.1          1.5         0.1 setosa 
## # ... with 140 more rows
…
